{
  "file_generated_by": "FlutterFire CLI",
  "purpose": "FirebaseAppID & ProjectID for this Firebase app in this directory",
  "GOOGLE_APP_ID": "1:367924411468:ios:6ef7ac61b71403c8a388e9",
  "FIREBASE_PROJECT_ID": "cards-against-spil-stuff",
  "GCM_SENDER_ID": "367924411468"
}